[
  {
    "name": "curry",
    "commit": {
      "sha": "a982551e27020c86147a175cda8677a6440a9e2c",
      "url": "https://api.github.com/repos/kliment/Sprinter/commits/a982551e27020c86147a175cda8677a6440a9e2c"
    }
  },
  {
    "name": "experimental",
    "commit": {
      "sha": "1e879af0a3aec38900a790115a08732fa30bb589",
      "url": "https://api.github.com/repos/kliment/Sprinter/commits/1e879af0a3aec38900a790115a08732fa30bb589"
    }
  },
  {
    "name": "master",
    "commit": {
      "sha": "b6820141eae692a854e495139e2406d6e5a9e1af",
      "url": "https://api.github.com/repos/kliment/Sprinter/commits/b6820141eae692a854e495139e2406d6e5a9e1af"
    }
  },
  {
    "name": "nolookahead",
    "commit": {
      "sha": "7d45ae9ecfc3a3eccd40ab8978513976949cc7d8",
      "url": "https://api.github.com/repos/kliment/Sprinter/commits/7d45ae9ecfc3a3eccd40ab8978513976949cc7d8"
    }
  },
  {
    "name": "reactobot",
    "commit": {
      "sha": "4b836974c6aa42bf395f0a29bf46f7674ef95d1f",
      "url": "https://api.github.com/repos/kliment/Sprinter/commits/4b836974c6aa42bf395f0a29bf46f7674ef95d1f"
    }
  },
  {
    "name": "splotbot",
    "commit": {
      "sha": "465520c1ea96495928cb7b22f149c4b35b006457",
      "url": "https://api.github.com/repos/kliment/Sprinter/commits/465520c1ea96495928cb7b22f149c4b35b006457"
    }
  }
]
