{
  "login": "kliment",
  "id": 228211,
  "avatar_url": "https://avatars.githubusercontent.com/u/228211?v\u003d2",
  "gravatar_id": "",
  "url": "https://api.github.com/users/kliment",
  "html_url": "https://github.com/kliment",
  "followers_url": "https://api.github.com/users/kliment/followers",
  "following_url": "https://api.github.com/users/kliment/following{/other_user}",
  "gists_url": "https://api.github.com/users/kliment/gists{/gist_id}",
  "starred_url": "https://api.github.com/users/kliment/starred{/owner}{/repo}",
  "subscriptions_url": "https://api.github.com/users/kliment/subscriptions",
  "organizations_url": "https://api.github.com/users/kliment/orgs",
  "repos_url": "https://api.github.com/users/kliment/repos",
  "events_url": "https://api.github.com/users/kliment/events{/privacy}",
  "received_events_url": "https://api.github.com/users/kliment/received_events",
  "type": "User",
  "site_admin": false,
  "public_repos": 25,
  "public_gists": 0,
  "followers": 158,
  "following": 0,
  "created_at": "2010-03-22T21:32:11Z",
  "updated_at": "2014-10-24T15:04:29Z"
}
